<?xml version="1.0" encoding="utf-8"?>
<!-- Generator: Adobe Illustrator 21.1.0, SVG Export Plug-In . SVG Version: 6.00 Build 0)  -->
<svg version="1.1" id="Layer_1" xmlns="http://www.w3.org/2000/svg" xmlns:xlink="http://www.w3.org/1999/xlink" x="0px" y="0px"
	 viewBox="0 0 48 48" style="enable-background:new 0 0 48 48;" xml:space="preserve">
<style type="text/css">
	.st0{fill:#327EBB;}
</style>
<title>icons_new</title>
<path class="st0" d="M22.3,41.6l2.5-2.5c0.2-0.2,0.2-0.5,0-0.7l0,0L12.6,26.2h31c0.3,0,0.5-0.2,0.5-0.5v-3.5c0-0.3-0.2-0.5-0.5-0.5
	h-31L24.8,9.6c0.2-0.2,0.2-0.5,0-0.7l0,0l-2.5-2.5c-0.2-0.2-0.5-0.2-0.7,0l0,0L4,24l17.6,17.6C21.8,41.8,22.1,41.8,22.3,41.6
	L22.3,41.6z"/>
</svg>
